[
  {
    "link": "#",
    "title": "管理者メニュー",
    "sub": [
      {
        "link": "#",
        "title": "各種ステータス設定"
      },
      {
        "link": "#",
        "title": "店舗情報設定"
      },
      {
        "link": "#",
        "title": "スタッフドライバー設定"
      }
    ]
  },
  {
    "link": "#",
    "title": "会員管理",
    "sub": [
      {
        "link": "#",
        "title": "会員一覧・検索・編集"
      },
      {
        "link": "#",
        "title": "サイト内メッセージ管理"
      },
      {
        "link": "#",
        "title": "ライブチャット管理"
      },
      {
        "link": "#",
        "title": "会員専用コンテンツ管理"
      },
      {
        "link": "#",
        "title": "サイトカスタマイズ",
        "sub": [
          {
            "link": "#",
            "title": "コンテンツ表示設定"
          },
          {
            "link": "#",
            "title": "メニュー設定"
          },
          {
            "link": "#",
            "title": "ウィジェット機能"
          },
          {
            "link": "#",
            "title": "SEO設定"
          },
          {
            "link": "#",
            "title": "ページ一覧"
          },
          {
            "link": "#",
            "title": "新規ページ作成・管理"
          },
          {
            "link": "#",
            "title": "高度な設定"
          }
        ]
      },
      {
        "link": "#",
        "title": "操作ログ"
      }
    ]
  }
]
