[
  {
    "number": "-",
    "name": "％％源氏名％％",
    "work": " 直近出勤日：2018年●月●日",
    "time": "表示期間：％％表示期間％％"
  },
  {
    "number": "⇅",
    "name": "％％源氏名％％",
    "work": " 直近出勤日：2018年●月●日",
    "time": "表示期間：％％表示期間％％"
  },
  {
    "number": "⇅",
    "name": "％％源氏名％％",
    "work": " 直近出勤日：2018年●月●日",
    "time": "表示期間：％％表示期間％％"
  },
  {
    "number": "⇅",
    "name": "％％源氏名％％",
    "work": " 直近出勤日：2018年●月●日",
    "time": "表示期間：％％表示期間％％"
  },
  {
    "number": "⇅",
    "name": "％％源氏名％％",
    "work": " 直近出勤日：2018年●月●日",
    "time": "表示期間：％％表示期間％％",
    "class": "gray"
  }
]
