[
  {
    "text": "Anemone渋谷店(同期 : 新宿店)",
    "class": "current",
    "check": "checked"
  },
  {
    "text": "Anemone銀座店(同期 : 品川店)"
  },
  {
    "text": "宝石（エステ）",
    "class": "current",
    "check": "checked"
  },
  {
    "text": "BlackLine銀座赤坂店"
  },
  {
    "text": "Letice(レティス)六本木店"
  },
  {
    "text": "vellugue(ヴェルージュ)丸の内店"
  },
  {
    "text": "ALDO(アルド)恵比寿"
  },
  {
    "text": "LUCIO(ルチオ)西麻布"
  }
]
